%YAML 1.1
%TAG !u! tag:unity3d.com,2011:
--- !u!1045 &1
EditorBuildSettings:
  m_ObjectHideFlags: 0
  serializedVersion: 2
  m_Scenes:
  - enabled: 1
    path: Assets/Scenes/Production/Main.unity
    guid: 0c21378a7cf0166478fdd183809ac5ac
  - enabled: 1
    path: Assets/Scenes/Production/Game.unity
    guid: 23000e18c714e2443bc0940e8c3aa6be
  m_configObjects: {}
