%YAML 1.1
%TAG !u! tag:unity3d.com,2011:
--- !u!1 &9164132854678682102
GameObject:
  m_ObjectHideFlags: 0
  m_CorrespondingSourceObject: {fileID: 0}
  m_PrefabInstance: {fileID: 0}
  m_PrefabAsset: {fileID: 0}
  serializedVersion: 6
  m_Component:
  - component: {fileID: 9164132854678682101}
  - component: {fileID: 9164132854678682100}
  - component: {fileID: 9164132854678682107}
  m_Layer: 0
  m_Name: PF_GameManager
  m_TagString: Untagged
  m_Icon: {fileID: 0}
  m_NavMeshLayer: 0
  m_StaticEditorFlags: 0
  m_IsActive: 1
--- !u!4 &9164132854678682101
Transform:
  m_ObjectHideFlags: 0
  m_CorrespondingSourceObject: {fileID: 0}
  m_PrefabInstance: {fileID: 0}
  m_PrefabAsset: {fileID: 0}
  m_GameObject: {fileID: 9164132854678682102}
  m_LocalRotation: {x: -0, y: -0, z: -0, w: 1}
  m_LocalPosition: {x: 0, y: 0, z: 0}
  m_LocalScale: {x: 1, y: 1, z: 1}
  m_Children: []
  m_Father: {fileID: 0}
  m_RootOrder: 0
  m_LocalEulerAnglesHint: {x: 0, y: 0, z: 0}
--- !u!114 &9164132854678682100
MonoBehaviour:
  m_ObjectHideFlags: 0
  m_CorrespondingSourceObject: {fileID: 0}
  m_PrefabInstance: {fileID: 0}
  m_PrefabAsset: {fileID: 0}
  m_GameObject: {fileID: 9164132854678682102}
  m_Enabled: 1
  m_EditorHideFlags: 0
  m_Script: {fileID: 11500000, guid: 943959313a962e8408f52c050b5828a3, type: 3}
  m_Name: 
  m_EditorClassIdentifier: 
  EscapeMenuOff: 1
  board: {fileID: 0}
  EscapeMenu: {fileID: 4102861983938005487, guid: bc6624d78f6bd0d45aa7c428fa968967,
    type: 3}
  redMarshall: {fileID: 1844328131376074785, guid: bb1d2b48397fc48428d30fe73bc48f93,
    type: 3}
  redGeneral: {fileID: 1844328131376074785, guid: eb52b89cca929df4ab7d3780dcee74f4,
    type: 3}
  redColonel: {fileID: 1844328131376074785, guid: b6a8ad9ef75fa0140a3bbad7f5c87e4b,
    type: 3}
  redMajor: {fileID: 1844328131376074785, guid: c6d31c6a227a4404e95b27e45f75d9f8,
    type: 3}
  redCaptain: {fileID: 1844328131376074785, guid: a4919180c04ba4645afc80340f8c6a0a,
    type: 3}
  redLieutenant: {fileID: 1844328131376074785, guid: f09a831018638b04d9f8c66e6f6a166e,
    type: 3}
  redSergeant: {fileID: 1844328131376074785, guid: a5e7a3a4cfb034c4b811d535c178ddfc,
    type: 3}
  redMiner: {fileID: 1844328131376074785, guid: 177ceaf6d4b3fb8438ab6ff0653efe77,
    type: 3}
  redScout: {fileID: 1844328131376074785, guid: 39d5902068ddd2c40b041a5df39d1711,
    type: 3}
  redSpy: {fileID: 1844328131376074785, guid: c9b4ff683884f29459393a88fcc90bb5, type: 3}
  redBomb: {fileID: 1844328131376074785, guid: 66ecdfb33734797439ca492f7184626f, type: 3}
  redFlag: {fileID: 1844328131376074785, guid: fc83e78933bd9f94ca87503fbfef5552, type: 3}
  blueMarshall: {fileID: 1844328131376074785, guid: ae628a5447f4cd94b9c4243f4d14569b,
    type: 3}
  blueGeneral: {fileID: 1844328131376074785, guid: 1dc22cea06d1d9b44bdf47c23757bea2,
    type: 3}
  blueColonel: {fileID: 1844328131376074785, guid: 4ef1801af78e58d43a79b9c32f1cd493,
    type: 3}
  blueMajor: {fileID: 1844328131376074785, guid: 9216d654806ac184abc8b85dacd22371,
    type: 3}
  blueCaptain: {fileID: 1844328131376074785, guid: 1ec7a4b73a801e848a71197f471b06c9,
    type: 3}
  blueLieutenant: {fileID: 1844328131376074785, guid: 4489c430a90494d40b57dff79a356a22,
    type: 3}
  blueSergeant: {fileID: 1844328131376074785, guid: 1dfce4cd0ec44de49933cf56b158f475,
    type: 3}
  blueMiner: {fileID: 1844328131376074785, guid: f1c71405c0cfc274a90da0581eaeba86,
    type: 3}
  blueScout: {fileID: 1844328131376074785, guid: eed64bba31b070348ab08e0c26c51669,
    type: 3}
  blueSpy: {fileID: 1844328131376074785, guid: 4333a0b77e64b15418805b9051177910, type: 3}
  blueBomb: {fileID: 1844328131376074785, guid: fbf15aa5ca1710f43a1b02588e116777,
    type: 3}
  blueFlag: {fileID: 1844328131376074785, guid: 65408eaa4a125a5469d72178485b600b,
    type: 3}
--- !u!114 &9164132854678682107
MonoBehaviour:
  m_ObjectHideFlags: 0
  m_CorrespondingSourceObject: {fileID: 0}
  m_PrefabInstance: {fileID: 0}
  m_PrefabAsset: {fileID: 0}
  m_GameObject: {fileID: 9164132854678682102}
  m_Enabled: 1
  m_EditorHideFlags: 0
  m_Script: {fileID: 11500000, guid: ed5d106a36b7a874f9dc8b7371afe049, type: 3}
  m_Name: 
  m_EditorClassIdentifier: 
  resolution: 
  fullscreen: 0
