%YAML 1.1
%TAG !u! tag:unity3d.com,2011:
--- !u!114 &114153339922846032
MonoBehaviour:
  m_ObjectHideFlags: 0
  m_CorrespondingSourceObject: {fileID: 0}
  m_PrefabInstance: {fileID: 0}
  m_PrefabAsset: {fileID: 0}
  m_GameObject: {fileID: 1844328131376074785}
  m_Enabled: 1
  m_EditorHideFlags: 0
  m_Script: {fileID: 11500000, guid: ce251b1d8d1057c4fab43098b354ba18, type: 3}
  m_Name: 
  m_EditorClassIdentifier: 
  _Image: {fileID: 0}
  type: 2
  CanKillMarshall: 0
  CanKillBomb: 0
  PWR: 8
  Importance: 700
  Amount: 2
--- !u!1001 &8272116405234224860
PrefabInstance:
  m_ObjectHideFlags: 0
  serializedVersion: 2
  m_Modification:
    m_TransformParent: {fileID: 0}
    m_Modifications:
    - target: {fileID: 23147889484245336, guid: 5ee2a640466c1ca429c64cb660beffe7,
        type: 3}
      propertyPath: m_Materials.Array.data[0]
      value: 
      objectReference: {fileID: 2100000, guid: 5580aaeff1d831d4b8c06207b9a187ec, type: 2}
    - target: {fileID: 23754499752568830, guid: 5ee2a640466c1ca429c64cb660beffe7,
        type: 3}
      propertyPath: m_Materials.Array.data[0]
      value: 
      objectReference: {fileID: 2100000, guid: 5580aaeff1d831d4b8c06207b9a187ec, type: 2}
    - target: {fileID: 33544134040244306, guid: 5ee2a640466c1ca429c64cb660beffe7,
        type: 3}
      propertyPath: m_Mesh
      value: 
      objectReference: {fileID: 4300000, guid: a02cd0a99178b4c4fa6eeb91e9d83180, type: 3}
    - target: {fileID: 1394963780491008456, guid: 5ee2a640466c1ca429c64cb660beffe7,
        type: 3}
      propertyPath: m_LocalRotation.x
      value: -0.5
      objectReference: {fileID: 0}
    - target: {fileID: 1394963780491008456, guid: 5ee2a640466c1ca429c64cb660beffe7,
        type: 3}
      propertyPath: m_LocalRotation.y
      value: -0.5
      objectReference: {fileID: 0}
    - target: {fileID: 1394963780491008456, guid: 5ee2a640466c1ca429c64cb660beffe7,
        type: 3}
      propertyPath: m_LocalRotation.z
      value: -0.5
      objectReference: {fileID: 0}
    - target: {fileID: 1394963780491008456, guid: 5ee2a640466c1ca429c64cb660beffe7,
        type: 3}
      propertyPath: m_LocalRotation.w
      value: 0.5
      objectReference: {fileID: 0}
    - target: {fileID: 1394963780491008456, guid: 5ee2a640466c1ca429c64cb660beffe7,
        type: 3}
      propertyPath: m_LocalEulerAnglesHint.y
      value: -90
      objectReference: {fileID: 0}
    - target: {fileID: 1506103730168562779, guid: 5ee2a640466c1ca429c64cb660beffe7,
        type: 3}
      propertyPath: m_LocalRotation.y
      value: -0.7071068
      objectReference: {fileID: 0}
    - target: {fileID: 1506103730168562779, guid: 5ee2a640466c1ca429c64cb660beffe7,
        type: 3}
      propertyPath: m_LocalRotation.w
      value: 0.7071068
      objectReference: {fileID: 0}
    - target: {fileID: 1506103730168562779, guid: 5ee2a640466c1ca429c64cb660beffe7,
        type: 3}
      propertyPath: m_LocalEulerAnglesHint.y
      value: -90
      objectReference: {fileID: 0}
    - target: {fileID: 1910623375640464860, guid: 5ee2a640466c1ca429c64cb660beffe7,
        type: 3}
      propertyPath: m_Mesh
      value: 
      objectReference: {fileID: 0}
    - target: {fileID: 3449693646450350417, guid: 5ee2a640466c1ca429c64cb660beffe7,
        type: 3}
      propertyPath: m_Materials.Array.data[0]
      value: 
      objectReference: {fileID: 2100000, guid: 5580aaeff1d831d4b8c06207b9a187ec, type: 2}
    - target: {fileID: 3799729250417377947, guid: 5ee2a640466c1ca429c64cb660beffe7,
        type: 3}
      propertyPath: m_Mesh
      value: 
      objectReference: {fileID: 4300000, guid: ffad7b6307705d9438f9f665b8e56754, type: 3}
    - target: {fileID: 4319798743805780679, guid: 5ee2a640466c1ca429c64cb660beffe7,
        type: 3}
      propertyPath: m_Mesh
      value: 
      objectReference: {fileID: 4300000, guid: a02cd0a99178b4c4fa6eeb91e9d83180, type: 3}
    - target: {fileID: 6512670991477983323, guid: 5ee2a640466c1ca429c64cb660beffe7,
        type: 3}
      propertyPath: m_Materials.Array.data[0]
      value: 
      objectReference: {fileID: 2100000, guid: 5580aaeff1d831d4b8c06207b9a187ec, type: 2}
    - target: {fileID: 7733851140332389085, guid: 5ee2a640466c1ca429c64cb660beffe7,
        type: 3}
      propertyPath: m_RootOrder
      value: 0
      objectReference: {fileID: 0}
    - target: {fileID: 7733851140332389085, guid: 5ee2a640466c1ca429c64cb660beffe7,
        type: 3}
      propertyPath: m_LocalEulerAnglesHint.x
      value: 0
      objectReference: {fileID: 0}
    - target: {fileID: 7733851140332389085, guid: 5ee2a640466c1ca429c64cb660beffe7,
        type: 3}
      propertyPath: m_LocalEulerAnglesHint.y
      value: 0
      objectReference: {fileID: 0}
    - target: {fileID: 7733851140332389085, guid: 5ee2a640466c1ca429c64cb660beffe7,
        type: 3}
      propertyPath: m_LocalEulerAnglesHint.z
      value: 0
      objectReference: {fileID: 0}
    - target: {fileID: 7733851140332494589, guid: 5ee2a640466c1ca429c64cb660beffe7,
        type: 3}
      propertyPath: m_Name
      value: V_RedColonel
      objectReference: {fileID: 0}
    - target: {fileID: 8513522698556413375, guid: 5ee2a640466c1ca429c64cb660beffe7,
        type: 3}
      propertyPath: m_LocalPosition.y
      value: 0
      objectReference: {fileID: 0}
    - target: {fileID: 8766574682590956091, guid: 5ee2a640466c1ca429c64cb660beffe7,
        type: 3}
      propertyPath: m_Mesh
      value: 
      objectReference: {fileID: 4300000, guid: ffad7b6307705d9438f9f665b8e56754, type: 3}
    m_RemovedComponents: []
  m_SourcePrefab: {fileID: 100100000, guid: 5ee2a640466c1ca429c64cb660beffe7, type: 3}
--- !u!1 &1844328131376074785 stripped
GameObject:
  m_CorrespondingSourceObject: {fileID: 7733851140332494589, guid: 5ee2a640466c1ca429c64cb660beffe7,
    type: 3}
  m_PrefabInstance: {fileID: 8272116405234224860}
  m_PrefabAsset: {fileID: 0}
