%YAML 1.1
%TAG !u! tag:unity3d.com,2011:
--- !u!1001 &7119222059292306753
PrefabInstance:
  m_ObjectHideFlags: 0
  serializedVersion: 2
  m_Modification:
    m_TransformParent: {fileID: 0}
    m_Modifications:
    - target: {fileID: 4829816883316649817, guid: ad2759d378c9d5e43abd7472a4fbe090,
        type: 3}
      propertyPath: m_Name
      value: PF_TileSelectorHilight
      objectReference: {fileID: 0}
    - target: {fileID: 5870897239092204014, guid: ad2759d378c9d5e43abd7472a4fbe090,
        type: 3}
      propertyPath: m_RootOrder
      value: 0
      objectReference: {fileID: 0}
    - target: {fileID: 5870897239092204014, guid: ad2759d378c9d5e43abd7472a4fbe090,
        type: 3}
      propertyPath: m_LocalEulerAnglesHint.x
      value: 0
      objectReference: {fileID: 0}
    - target: {fileID: 5870897239092204014, guid: ad2759d378c9d5e43abd7472a4fbe090,
        type: 3}
      propertyPath: m_LocalEulerAnglesHint.y
      value: 0
      objectReference: {fileID: 0}
    - target: {fileID: 5870897239092204014, guid: ad2759d378c9d5e43abd7472a4fbe090,
        type: 3}
      propertyPath: m_LocalEulerAnglesHint.z
      value: 0
      objectReference: {fileID: 0}
    - target: {fileID: 7677043283907894383, guid: ad2759d378c9d5e43abd7472a4fbe090,
        type: 3}
      propertyPath: m_Materials.Array.data[0]
      value: 
      objectReference: {fileID: 2100000, guid: 80e7f95b20c196340b15fea2ad98e613, type: 2}
    m_RemovedComponents: []
  m_SourcePrefab: {fileID: 100100000, guid: ad2759d378c9d5e43abd7472a4fbe090, type: 3}
